{
  "ネピドー": {
    "rarityCounter": { "A": 1, "S": 1, "SS": 1 },
    "宮廷魔術師": {
      "rarity": "A",
      "idx": 0,
      "type": "アタッカー",
      "weapon": "杖",
      "resistance": {
        "刃": null,
        "衝": null,

        "貫": null,
        "火": null,
        "水": null,
        "風": null,
        "光": null,
        "闇": null
      },
      "baseLimit": {
        "物攻": { "min": null, "max": null, "determined": -10, "limitStage": 0 },
        "物防": { "min": null, "max": null, "determined": 10, "limitStage": 1 },
        "命中": { "min": null, "max": null, "determined": -20, "limitStage": 0 },
        "速さ": { "min": null, "max": null, "determined": -30, "limitStage": 0 },
        "魔攻": { "min": null, "max": null, "determined": 50, "limitStage": 2 },
        "魔防": { "min": null, "max": null, "determined": -10, "limitStage": 0 },
        "回復": { "min": null, "max": null, "determined": 0, "limitStage": 0 },
        "幸運": { "min": null, "max": null, "determined": 20, "limitStage": 1 }
      },
      "statusMagnification": {
        "initial": {
          "物攻": null,
          "物防": null,
          "命中": null,
          "速さ": null,
          "魔攻": null,
          "魔防": null,
          "回復": null,
          "幸運": null
        },
        "LLv50_GLv20": {
          "物攻": null,
          "物防": null,
          "命中": null,
          "速さ": null,
          "魔攻": null,
          "魔防": null,
          "回復": null,
          "幸運": null
        }
      },
      "LLvUpStep": {
        "物攻": null,
        "物防": null,
        "命中": null,
        "速さ": null,
        "魔攻": null,
        "魔防": null,
        "回復": null,
        "幸運": null
      },
      "GLvUpStep": {
        "物攻": null,
        "物防": null,
        "命中": null,
        "速さ": null,
        "魔攻": null,
        "魔防": null,
        "回復": null,
        "幸運": null
      },
      "skill": [null, null, null],
      "ability": [null, null, null],
      "specialSkill": null
    },

    "ふたりでひとつ": {
      "rarity": "S",
      "idx": 0,
      "type": "サポーター",
      "weapon": "杖",
      "resistance": {
        "刃": null,
        "衝": null,
        "貫": null,
        "火": null,
        "水": null,
        "風": null,
        "光": null,
        "闇": null
      },
      "baseLimit": {
        "物攻": { "min": null, "max": null, "determined": -10, "limitStage": 0 },
        "物防": { "min": null, "max": null, "determined": 0, "limitStage": 0 },
        "命中": { "min": null, "max": null, "determined": 0, "limitStage": 0 },
        "速さ": { "min": null, "max": null, "determined": 10, "limitStage": 1 },
        "魔攻": { "min": null, "max": null, "determined": 30, "limitStage": 1 },
        "魔防": { "min": null, "max": null, "determined": -20, "limitStage": 0 },
        "回復": { "min": null, "max": null, "determined": 0, "limitStage": 0 },
        "幸運": { "min": null, "max": null, "determined": -10, "limitStage": 0 }
      },
      "statusMagnification": {
        "initial": {
          "物攻": null,
          "物防": null,
          "命中": null,
          "速さ": null,
          "魔攻": null,
          "魔防": null,
          "回復": null,
          "幸運": null
        },
        "LLv50_GLv20": {
          "物攻": null,
          "物防": null,
          "命中": null,
          "速さ": null,
          "魔攻": null,
          "魔防": null,
          "回復": null,
          "幸運": null
        }
      },
      "LLvUpStep": {
        "物攻": null,
        "物防": null,
        "命中": null,
        "速さ": null,
        "魔攻": null,
        "魔防": null,
        "回復": null,
        "幸運": null
      },
      "GLvUpStep": {
        "物攻": null,
        "物防": null,
        "命中": null,
        "速さ": null,
        "魔攻": null,
        "魔防": null,
        "回復": null,
        "幸運": null
      },
      "skill": [null, null, null],
      "ability": [null, null, null],
      "specialSkill": null
    },

    "泡沫の兄妹": {
      "rarity": "SS",
      "idx": 0,
      "type": "アタッカー",
      "weapon": "杖",
      "resistance": {
        "刃": null,
        "衝": null,
        "貫": null,
        "火": null,
        "水": null,
        "風": null,
        "光": null,
        "闇": null
      },
      "baseLimit": {
        "物攻": { "min": null, "max": null, "determined": -30, "limitStage": 0 },
        "物防": { "min": null, "max": null, "determined": -20, "limitStage": 0 },
        "命中": { "min": null, "max": null, "determined": 0, "limitStage": 0 },
        "速さ": { "min": null, "max": null, "determined": 0, "limitStage": 0 },
        "魔攻": { "min": null, "max": null, "determined": 30, "limitStage": 1 },
        "魔防": { "min": null, "max": null, "determined": 10, "limitStage": 1 },
        "回復": { "min": null, "max": null, "determined": 0, "limitStage": 0 },
        "幸運": { "min": null, "max": null, "determined": 0, "limitStage": 0 }
      },
      "statusMagnification": {
        "initial": {
          "物攻": null,
          "物防": null,
          "命中": null,
          "速さ": null,
          "魔攻": null,
          "魔防": null,
          "回復": null,
          "幸運": null
        },
        "LLv50_GLv20": {
          "物攻": null,
          "物防": null,
          "命中": null,
          "速さ": null,
          "魔攻": null,
          "魔防": null,
          "回復": null,
          "幸運": null
        }
      },
      "LLvUpStep": {
        "物攻": null,
        "物防": null,
        "命中": null,
        "速さ": null,
        "魔攻": null,
        "魔防": null,
        "回復": null,
        "幸運": null
      },
      "GLvUpStep": {
        "物攻": null,
        "物防": null,
        "命中": null,
        "速さ": null,
        "魔攻": null,
        "魔防": null,
        "回復": null,
        "幸運": null
      },
      "skill": [null, null, null],
      "ability": [null, null, null],
      "specialSkill": null
    }
  }
}
